{
    "key": "group_5b84cc17f1adf",
    "title": "Award Options",
    "fields": [
        {
            "key": "field_5b84cc1b9065d",
            "label": "Link",
            "name": "link",
            "type": "url",
            "instructions": "Link to the award site if available. Leave blank for none.",
            "required": 0,
            "conditional_logic": 0,
            "wrapper": {
                "width": "",
                "class": "",
                "id": ""
            },
            "default_value": "",
            "placeholder": ""
        }
    ],
    "location": [
        [
            {
                "param": "post_type",
                "operator": "==",
                "value": "award"
            }
        ]
    ],
    "menu_order": 0,
    "position": "normal",
    "style": "default",
    "label_placement": "top",
    "instruction_placement": "label",
    "hide_on_screen": "",
    "active": 1,
    "description": "",
    "modified": 1535429680
}